{
  "name": "<%= _.slugify(appname) %>",
  "version": "0.0.0",
  "dependencies": {<% if (compassBootstrap) { %>
    "sass-bootstrap": "~2.3.0",<% } %>
    "jquery": "~1.9.0",<% if (!includeRequireJS) { %>
    "underscore": "~1.4.3",
    "backbone": "~1.0.0",<% }else{ %>
    "requirejs": "~2.1.5",
    "requirejs-text": "~2.0.5",
    "backbone-amd": "~1.0.0",
    "backbone.marionette": "~1.0.3",
    "underscore-amd": "~1.4.4",<% } %>
    "modernizr": "~2.6.2"<% if (templateFramework === 'handlebars') { %>,
    "handlebars": "~1.0.0"<% } %>
  },
  "devDependencies": {}
}
